Client for the Pangaea Database • rOpenSci: pangaear
…
Get data

res <- pg_data(doi = '10.1594/PANGAEA.807580')
res[[1]]
#> <Pangaea data> 10.1594/PANGAEA.807580
#>   parent doi: 10.1594/PANGAEA.807580
#>   url:        https://doi.org/10.1594/PANGAEA.807580
#>   citation:   Schiebel, Ralf; Waniek, Joanna J; Bork, Matthias; Hemleben, Christoph (2001): Physical oceanography during METEOR cruise M36/6. PANGAEA, https://doi.org/10.1594/PANGAEA.807580, In supplement to: Schiebel, R et al. (2001): Planktic foraminiferal production stimulated by chlorophyll redistribution and entrainment of nutrients. Deep Sea Research Part I: Oceanographic Research Papers, 48(3), 721-740, https://doi.org/10.1016/S0967-0637(00)00065-0
#>   path:       /Users/sckott/Library/Caches/R/pangaear/10_1594_PANGAEA_807580.txt
#>   data:
#> # A tibble: 32,179 x 13
#>    Event       `Date/Time`   Latitude Longitude `Elevation [m]` `Depth water [m…
#>    <chr>       <chr>            <dbl>     <dbl>           <int>            <dbl>
#>  1 M36/6-CTD-… 1996-10-14T1…     49.0     -16.5           -4802             0   
#>  2 M36/6-CTD-… 1996-10-14T1…     49.0     -16.5           -4802             0.99
#>  3 M36/6-CTD-… 1996-10-14T1…     49.0     -16.5           -4802             1.98
#>  4 M36/6-CTD-… 1996-10-14T1…     49.0     -16.5           -4802             2.97
#>  5 M36/6-CTD-… 1996-10-14T1…     49.0     -16.5           -4802             3.96
#>  6 M36/6-CTD-… 1996-10-14T1…     49.0     -16.5           -4802             4.96
#>  7 M36/6-CTD-… 1996-10-14T1…     49.0     -16.5           -4802             5.95
#>  8 M36/6-CTD-… 1996-10-14T1…     49.0     -16.5           -4802             6.94
#>  9 M36/6-CTD-… 1996-10-14T1…     49.0     -16.5           -4802             7.93
#> 10 M36/6-CTD-… 1996-10-14T1…     49.0     -16.5           -4802             8.92
#> # … with 32,169 more rows, and 7 more variables: Press [dbar] <int>,
#> #   Temp [°C] <dbl>, Sal <dbl>, Tpot [°C] <dbl>, Sigma-theta [kg/m**3] <dbl>,
#> #   Sigma in situ [kg/m**3] <dbl>, Cond [mS/cm] <dbl>

Search for data then pass DOI to data function.

res <- pg_search(query = 'water', bbox = c(-124.2, 41.8, -116.8, 46.1), count = 3)
pg_data(res$doi[3])[1:3]
#> [[1]]
#> <Pangaea data> 10.1594/PANGAEA.406110
#>   parent doi: 10.1594/PANGAEA.406110
#>   url:        https://doi.org/10.1594/PANGAEA.406110
#>   citation:   WOCE Surface Velocity Program, SVP (2006): Water temperature and current velocity from surface drifter SVP_9616641. PANGAEA, https://doi.org/10.1594/PANGAEA.406110
#>   path:       /Users/sckott/Library/Caches/R/pangaear/10_1594_PANGAEA_406110.txt
#>   data:
#> # A tibble: 101 x 10
#>    `Date/Time`  Latitude Longitude `Depth water [m… `Temp [°C]` `Cur vel U [cm/…
#>    <chr>           <dbl>     <dbl>            <int>       <dbl>            <dbl>
#>  1 1996-11-11T…     41.6     -125.                0        12.7            NA   
#>  2 1996-11-11T…     41.6     -125.                0        12.5            11.3 
#>  3 1996-11-12T…     41.6     -124.                0        12.4             2.91
#>  4 1996-11-12T…     41.7     -124.                0        12.3             3.64
#>  5 1996-11-12T…     41.7     -124.                0        11.9            23.4 
#>  6 1996-11-12T…     41.7     -124.                0        11.4            21.4 
#>  7 1996-11-13T…     41.8     -124.                0        11.1             0.21
#>  8 1996-11-13T…     41.8     -124.                0        11.2            -0.86
#>  9 1996-11-13T…     41.8     -124.                0        11.1             1.51
#> 10 1996-11-13T…     41.9     -124.                0        11.0            -5.58
#> # … with 91 more rows, and 4 more variables: Cur vel V [cm/s] <dbl>,
#> #   Latitude e <dbl>, Longitude e <dbl>, Code <int>
…
